....
----------------------------------------------------------------------
Ran 4 tests in 0.002s

OK
Name               Stmts   Miss Branch BrPart  Cover   Missing
--------------------------------------------------------------
Diplomacy.py          60      3     38      2    95%   16-17, 62->65, 65, 78->77
TestDiplomacy.py      26      0      0      0   100%
--------------------------------------------------------------
TOTAL                 86      3     38      2    96%
