.........
----------------------------------------------------------------------
Ran 9 tests in 0.004s

OK
Name               Stmts   Miss Branch BrPart  Cover   Missing
--------------------------------------------------------------
Diplomacy.py          40      0     36      1    99%   38->32
TestDiplomacy.py      49      0      0      0   100%
--------------------------------------------------------------
TOTAL                 89      0     36      1    99%
