....
----------------------------------------------------------------------
Ran 4 tests in 0.001s

OK
Name               Stmts   Miss Branch BrPart  Cover   Missing
--------------------------------------------------------------
Diplomacy.py          64      2     48      3    96%   53->54, 54, 55->49, 58->59, 59
TestDiplomacy.py      26      0      2      1    96%   61->exit
--------------------------------------------------------------
TOTAL                 90      2     50      4    96%
